paper-two-
…
pm10 |>
  group_by(Year,Country) 

# A tibble: 1,100 × 26
# Groups:   Year, Country [97]
   Region  Country City  mean_…¹ Year  Numbe…² Tempo…³ Refer…⁴ X     X.1   X.2  
   <chr>   <chr>   <chr> <chr>   <chr> <chr>   <chr>   <chr>   <lgl> <lgl> <lgl>
 1 ""      ""      ""    ug/m3   ""    " of s… (%)     ""      NA    NA    NA   
 2 "Afr"   "Alger… "Alg… 42      "200… "2 sta… <NA>    "Samas… NA    NA    NA   
 3 "AmrLM… "Argen… "Bue… 38      "201… "2 sta… 6-10 m… "Bueno… NA    NA    NA   
 4 "WprHI" "Austr… "Ade… 14      "200… "1 sta… <NA>    "Envir… NA    NA    NA   
 5 "WprHI" "Austr… "Bri… 18      "200… "1 sta… <NA>    "Queen… NA    NA    NA   
 6 "WprHI" "Austr… "Bun… 14      "200…  <NA>   99      "Gover… NA    NA    NA   
 7 "WprHI" "Austr… "Can… 10      "200… "1 sta… 91      "Envir… NA    NA    NA   
 8 "WprHI" "Austr… "Dar… 14      "200… "1 sta… <NA>    "North… NA    NA    NA   
 9 "WprHI" "Austr… "Gla… 15      "200… "1 sta… <NA>    "Queen… NA    NA    NA   
10 "WprHI" "Austr… "Hob… 12      "200… "1 sta… 87      "Tasma… NA    NA    NA   
# … with 1,090 more rows, 15 more variables: X.3 <lgl>, X.4 <lgl>, X.5 <lgl>,
#   X.6 <lgl>, X.7 <lgl>, X.8 <lgl>, X.9 <lgl>, X.10 <lgl>, X.11 <lgl>,
#   X.12 <lgl>, X.13 <lgl>, X.14 <lgl>, X.15 <lgl>, X.16 <lgl>, X.17 <lgl>, and
#   abbreviated variable names ¹​mean_PM10, ²​Number.and.location,
#   ³​Temporal.coverage, ⁴​Reference
…
